The Role of Hyperoxia in Sepsis Mortality
…
And now we can generate our hyperoxia profiles.

hyperoxic.profile <- spO2.merge %>% 
  group_by(icustay_id) %>% 
  summarise(hyperoxic_duration = as.numeric(hyperoxicTime(charttime, valuenum)))

With that, we now have an exposure variable that we can use to add to our cohort.

hs.df <- inner_join(cohort.tidy.df, hyperoxic.profile, by = c("icustay_id"))

Of note, we have not yet excluded hypoxic patients; having done that in the prelim, Im going to proceed with and without excluding these patients.

spO2.merge %>% filter(valuenum < 94) %>% group_by(subject_id) %>% summarise(count = n()) %>% arrange(-count)

## # A tibble: 2,892 x 2
##    subject_id count
##         <int> <int>
##  1      78251   986
##  2      61106   670
##  3      48380   628
##  4      83629   437
##  5       5474   369
##  6      19834   364
##  7      31813   352
##  8      66002   277
##  9      62239   274
## 10      41612   239
## # ... with 2,882 more rows
…
